<?xml version="1.0" encoding="UTF-8" standalone="no"?>
<!-- Generator: IcoMoon.io -->

<svg
   width="32"
   height="32"
   viewBox="0 0 32 32"
   fill="#000000"
   version="1.1"
   id="svg6"
   sodipodi:docname="mail_icon.svg"
   inkscape:version="1.2.2 (b0a8486541, 2022-12-01)"
   xmlns:inkscape="http://www.inkscape.org/namespaces/inkscape"
   xmlns:sodipodi="http://sodipodi.sourceforge.net/DTD/sodipodi-0.dtd"
   xmlns="http://www.w3.org/2000/svg"
   xmlns:svg="http://www.w3.org/2000/svg">
  <defs
     id="defs10" />
  <sodipodi:namedview
     id="namedview8"
     pagecolor="#ffffff"
     bordercolor="#000000"
     borderopacity="0.25"
     inkscape:showpageshadow="2"
     inkscape:pageopacity="0.0"
     inkscape:pagecheckerboard="0"
     inkscape:deskcolor="#d1d1d1"
     showgrid="false"
     inkscape:lockguides="false"
     inkscape:zoom="14.75"
     inkscape:cx="30.033898"
     inkscape:cy="17.220339"
     inkscape:window-width="1440"
     inkscape:window-height="843"
     inkscape:window-x="0"
     inkscape:window-y="1"
     inkscape:window-maximized="1"
     inkscape:current-layer="svg6" />
  <g
     id="g4"
     style="opacity:1;fill:none;fill-opacity:0;stroke:#27343d;stroke-opacity:1"
     transform="matrix(0.96920733,0,0,1.0767717,0.49268272,-5.535434)">
    <path
       d="M 30,8 H 2 C 0.896,8 0,8.896 0,10 v 20 c 0,1.104 0.896,2 2,2 h 28 c 1.104,0 2,-0.896 2,-2 V 10 C 32,8.896 31.104,8 30,8 Z M 11.36,22.054 16.004,25.21 20.62,22.032 28.586,30 H 3.414 Z M 2,28.586 V 15.69 l 7.676,5.218 z M 22.294,20.88 30,15.576 v 13.01 z M 30,10 v 3.236 L 29.958,13.176 15.996,22.79 2,13.274 V 10 Z"
       id="path2"
       style="fill:none;fill-opacity:0;stroke:#27343d;stroke-opacity:1" />
  </g>
</svg>
